<svg xmlns="http://www.w3.org/2000/svg" viewBox="0 0 1493 638">
  <path d="M416.27 393.26c-20.78 45.55-63 74-120.36 74-84.29 0-135.41-60.94-135.41-149.65 0-88.16 53.29-150.73 136.49-150.73 54.35 0 97 27.38 117.85 70.49"/>
  <path d="M862 418.08c-23.36 29.33-59.7 46.8-107 46.8-88.73 0-138.14-63.12-138.14-149.65 0-88.16 53.34-150.73 138.71-150.73 83.67 0 134.17 58.8 136 140.3L684 306"/>
  <path d="M1110.17 454.41h55.95c67.06 0 95.14-11.93 121-32.53 30-24.24 45.22-61.47 45.22-110.63 0-60.35-23.73-102-70.55-123.75-25.52-11.82-53-16.64-94.84-16.64h-58.7l1.7 214.17"/>
</svg>
