<svg xmlns="http://www.w3.org/2000/svg" viewBox="0 0 172.8 33.7">
  <path d="M24.74 11.45h6.34C29.62 4.69 24.62.06 16.33.06v5.12a8.82 8.82 0 018.42 6.27m-8.43 17.13v5.12c8.08 0 13.06-4.71 14.7-11h-6.4a8.62 8.62 0 01-8.3 5.91M0 16.82C0 26 5.59 33 14.75 33.64V28.5c-5.26-.63-8.23-5-8.23-11.62 0-6.25 3-10.94 8.23-11.62V.12C5.73.84 0 7.77 0 16.82"/>
  <path d="M60 0v5c5 .22 7.9 3.69 8.43 8.64H60v4.87h14.78v-2C74.78 8 70.09.2 60 0m-.16 28.58c-6.09 0-9.87-4.45-10-10.06h8.64v-4.87H50c.62-5 3.88-8.18 8.4-8.61V0c-8.92.55-14.86 7.45-14.86 17 0 10 6.15 16.64 16 16.64 7.62 0 12.8-4.14 14.56-9.93H68c-1.65 2.74-3.78 4.81-8.17 4.81"/>
  <path d="M110.14 3.31C106.53 1 101.67.8 97.16.79v5h2.15c7.23 0 11.59 3.78 11.59 11.1 0 8.26-4.49 11-12.17 11H97.2v4.94c5.89 0 10.2-.27 14-3.33a16 16 0 005.62-12.66c0-5.89-2.52-11-6.65-13.61M89.88 32.91h5.71V.79h-5.71z"/>
  <path d="M129.05 32.91h5.71V.79h-5.71z"/>
  <path d="M155.91 32.91h5.71V7.19h-5.71z"/>
  <path d="M172.69.79h-27.85a.11.11 0 00-.11.11v4.66a.11.11 0 00.11.11h27.85a.1.1 0 00.11-.11V.9a.11.11 0 00-.11-.11"/>
</svg>
