<svg xmlns="http://www.w3.org/2000/svg" viewBox="0 0 311.94 96.75">
  <path d="M26.35 89.14a4.34 4.34 0 010-4c1.35-2.79 4.44-3.53 7.42-2.09 3.07 1.5 4.27 4.37 2.96 7.07a4 4 0 01-3.03 2.54c.05.02 1.14.5 2.32 1.08l2.3 1.12-.92 1.9-13.2-6.42.88-1.82zm3.62 1.8c2.15 1.04 4.12.67 5.01-1.18.91-1.88.02-3.61-2.18-4.68-2.1-1.02-4.13-.69-5.03 1.17-.88 1.83.1 3.67 2.2 4.7zM31.82 76.39l1.15.78a2.68 2.68 0 01.1-3.13 3.2 3.2 0 01.34-.43L35 74.68a2.7 2.7 0 00-.46.58c-1.1 1.64-.1 2.77 1.7 3.99l4.7 3.17-1.17 1.74-8.25-5.57-.82-.53zM45.88 67.64c2.52 2.2 2.95 5.31.65 7.95s-5.4 2.59-7.9.4c-2.57-2.23-2.98-5.4-.73-7.98 2.23-2.57 5.43-2.6 7.98-.37zm-5.81 6.65c1.84 1.6 3.76 1.74 5.13.17s.99-3.48-.85-5.08c-1.76-1.54-3.82-1.74-5.17-.18s-.87 3.56.89 5.1zM50 66.79a2.45 2.45 0 003.23-.34c.94-.82 1.24-1.84.6-2.58-.68-.76-1.64-.28-3.04.46l-.72.35c-1.65.87-3.2 1.15-4.45-.27-1.28-1.46-.8-3.57 1.02-5.18 1.82-1.6 3.7-1.86 5.3-.41l-1.5 1.32a2.14 2.14 0 00-2.74.38c-1 .88-1.13 1.72-.6 2.33.6.67 1.25.43 2.5-.15l1.1-.52c2.06-.97 3.36-1.23 4.57.15 1.39 1.58.92 3.8-.96 5.45-2 1.76-3.93 1.93-5.87.38zM54.5 53.32l1.65-1.2.96 1.3-1.64 1.21 3.88 5.3a1.15 1.15 0 001.88.3 4.29 4.29 0 00.4-.35l.92 1.26a3.85 3.85 0 01-.6.55c-1.56 1.15-2.93 1.36-4.23-.4l-3.96-5.4-1.32.98-.96-1.31 1.32-.98-1.75-2.38 1.71-1.26zM69.79 50.03c1.73 2.85 1.2 5.95-1.78 7.77s-5.93.83-7.66-2.02c-1.77-2.9-1.2-6.05 1.72-7.83 2.9-1.77 5.95-.83 7.72 2.08zm-7.55 4.58c1.27 2.08 3.06 2.8 4.84 1.7s2-3.01.73-5.1c-1.22-1.99-3.12-2.8-4.88-1.73s-1.9 3.13-.7 5.13zM71.18 43.23l.63 1.24a2.68 2.68 0 011.6-2.68 2.96 2.96 0 01.5-.2l.87 1.7a2.73 2.73 0 00-.68.28c-1.76.9-1.44 2.36-.46 4.32l2.55 5.06-1.87.95-4.48-8.9-.46-.87zM82.8 39.5a4.34 4.34 0 012.73-2.91c2.9-1.1 5.66.47 6.83 3.57 1.21 3.2.11 6.12-2.69 7.18a4 4 0 01-3.94-.24c.02.06.48 1.16.94 2.38l.91 2.4-1.96.75L80.4 38.9l1.89-.72zm1.4 3.8c.84 2.24 2.52 3.31 4.45 2.58 1.94-.74 2.48-2.61 1.62-4.9-.83-2.18-2.54-3.34-4.47-2.6-1.88.71-2.43 2.73-1.6 4.91zM94.85 33.75l.41 1.33a2.68 2.68 0 012.04-2.37 2.98 2.98 0 01.53-.12l.56 1.83a2.65 2.65 0 00-.71.16c-1.9.58-1.82 2.09-1.17 4.18l1.67 5.42-2.01.62-2.94-9.52-.31-.93zM111 35.1c.8 3.24-.62 6.05-4 6.9s-5.92-.98-6.72-4.21c-.83-3.3.65-6.14 3.96-6.97 3.3-.82 5.94.99 6.76 4.29zm-8.57 2.13c.6 2.36 2.1 3.58 4.12 3.07s2.8-2.29 2.2-4.65c-.56-2.27-2.14-3.61-4.14-3.11s-2.74 2.42-2.18 4.69zM119.62 27.93l2.01-.34.28 1.6-2.01.34 1.1 6.48c.17 1.04.74 1.24 1.54 1.1a4.36 4.36 0 00.5-.12l.26 1.54a3.85 3.85 0 01-.78.22c-1.91.33-3.23-.1-3.6-2.26l-1.12-6.6-1.62.27-.27-1.6 1.62-.27-.5-2.92 2.1-.36zM127.97 37.75l-5.41-10.35 2.38-.3 2.31 4.73 1.66 3.51h.04c.3-1.57.56-2.4.85-4.06l1-4.91 2.26-.29-2.82 11.38zM145.38 30.68c.24 3.33-1.64 5.85-5.13 6.1s-5.66-1.98-5.9-5.3c-.24-3.39 1.7-5.93 5.12-6.18 3.38-.25 5.67 2 5.91 5.38zm-8.8.61c.17 2.44 1.44 3.9 3.52 3.74s3.15-1.77 2.98-4.2c-.17-2.33-1.5-3.93-3.55-3.78s-3.12 1.92-2.95 4.24zM149.44 25.1l.04 1.4a2.67 2.67 0 012.6-1.75 3.25 3.25 0 01.55.02l.05 1.92a2.7 2.7 0 00-.73-.04c-1.98.06-2.31 1.52-2.25 3.71l.16 5.67-2.1.06-.28-9.96c0-.31-.02-.65-.05-.98zM154.67 20.99l2.13.03-.07 4.27c0 .34 0 .69-.03 1.09a4.25 4.25 0 013.58-1.68c3.08.04 5.07 2.53 5.02 5.85-.05 3.41-2.17 5.72-5.17 5.68a4.17 4.17 0 01-3.67-1.85l-.03 1.54-1.97-.03zm1.86 9.45c-.03 2.42 1.13 4.02 3.21 4.05 2.06.03 3.25-1.52 3.29-3.96.03-2.33-1.13-4.04-3.2-4.07-2.01-.03-3.26 1.64-3.3 3.98zM174.39 35.1a3.83 3.83 0 01-3.6 1.59c-2.55-.18-3.67-1.8-3.47-4.66l.47-6.8 2.1.15-.42 6c-.15 2.17.45 3.49 2.17 3.6 2.24.17 2.78-1.84 2.95-4.24l.35-5 2.1.14-.7 10.1c-.03.28-.05.55-.04.82l-2.02-.14zM186.08 22.88l2.1.33-.65 4.22c-.05.33-.1.68-.18 1.07a4.25 4.25 0 013.78-1.17c3.04.47 4.66 3.21 4.16 6.49-.52 3.38-2.94 5.37-5.9 4.9a4.17 4.17 0 01-3.4-2.33l-.23 1.52-1.95-.3zm.54 9.62c-.37 2.39.56 4.14 2.62 4.46 2.04.31 3.43-1.06 3.8-3.47.36-2.3-.56-4.15-2.6-4.47-2-.31-3.46 1.17-3.82 3.48zM203.63 39.66a3.83 3.83 0 01-3.8 1.04c-2.5-.56-3.36-2.33-2.75-5.12l1.48-6.65 2.05.46-1.3 5.88c-.47 2.11-.07 3.5 1.61 3.88 2.2.48 3.03-1.42 3.55-3.76l1.08-4.9 2.05.45-2.19 9.9c-.05.26-.11.52-.15.8l-1.97-.44zM215.5 44.56l.45-1.48a4.17 4.17 0 01-4.06.66c-2.88-.85-4.2-3.69-3.24-6.96.95-3.18 3.56-4.97 6.58-4.07a4.18 4.18 0 012.87 2.68l.29-1.04 1.22-4.12 2.02.6-4.25 14.29zm-4.68-7.12c-.7 2.34-.02 4.17 1.96 4.76 2 .6 3.56-.59 4.25-2.9.66-2.25-.01-4.2-1.95-4.79-1.97-.58-3.6.7-4.26 2.93zM231.43 44.62c-1.2 3.11-3.98 4.58-7.25 3.32s-4.26-4.21-3.06-7.32c1.23-3.17 4.07-4.64 7.26-3.4 3.16 1.23 4.27 4.23 3.05 7.4zm-8.22-3.21c-.88 2.27-.35 4.13 1.59 4.88s3.6-.25 4.48-2.52c.85-2.18.33-4.2-1.6-4.94s-3.63.4-4.47 2.58zM238.22 52.22a3.83 3.83 0 01-3.92.1c-2.3-1.13-2.72-3.06-1.46-5.62l3-6.12 1.9.94-2.67 5.4c-.95 1.94-.9 3.39.65 4.15 2.02 1 3.28-.66 4.33-2.8l2.22-4.52 1.89.94-4.48 9.08-.34.74-1.8-.9zM251.76 57.97a4.87 4.87 0 01-6.27.53c-2.92-1.81-3.42-5.02-1.67-7.84a5.4 5.4 0 017.76-1.92 4.76 4.76 0 012.22 5.98l-1.84-1.14a3.02 3.02 0 00-1.37-3.4c-1.75-1.08-3.67-.3-4.9 1.68-1.28 2.07-1.1 4.02.67 5.12a2.95 2.95 0 003.54-.17zM258.73 55.78a3.8 3.8 0 013.84.76c1.97 1.56 1.95 3.7.19 5.92l-4.19 5.28-1.66-1.32 3.7-4.66c1.34-1.7 1.62-3.2.27-4.27-1.37-1.1-3-.58-4.07.78l-3.92 4.94-1.65-1.3 6.28-7.92c.17-.22.35-.44.5-.67l1.63 1.3zM271.34 72.97c-2.41 2.3-5.55 2.46-7.97-.08s-2.08-5.62.33-7.92c2.45-2.35 5.65-2.47 8 0 2.35 2.46 2.09 5.65-.36 8zm-6.09-6.4c-1.76 1.69-2.07 3.6-.63 5.1s3.37 1.3 5.14-.38c1.68-1.62 2.07-3.66.64-5.15s-3.46-1.19-5.15.43zM271.8 77.14a2.46 2.46 0 000 3.25c.72 1.02 1.7 1.42 2.5.86.82-.6.44-1.6-.14-3.08l-.28-.75c-.7-1.73-.81-3.3.73-4.4 1.58-1.13 3.63-.44 5.04 1.55s1.46 3.87-.14 5.32l-1.16-1.63a2.15 2.15 0 00-.1-2.77c-.77-1.09-1.59-1.3-2.25-.83-.73.52-.56 1.19-.1 2.5l.4 1.15c.75 2.15.87 3.47-.62 4.53-1.72 1.22-3.87.53-5.32-1.51-1.54-2.18-1.51-4.12.22-5.89zM284.7 83.3l.98 1.8-1.42.77-.98-1.79-5.76 3.14a1.16 1.16 0 00-.55 1.82 4.28 4.28 0 00.29.44l-1.37.75a3.87 3.87 0 01-.47-.67c-.92-1.7-.94-3.1.97-4.14l5.87-3.2-.79-1.45 1.43-.78.79 1.45 2.6-1.42 1.01 1.87zM287.55 89.26l-10 4.41-.85-1.93 10-4.4zm2.75-3.56l.88 2-2.17.95-.88-2z"/>
  <path d="M10.6 11.4a4.88 4.88 0 01-5.04 3.78C2.12 15.18 0 12.72 0 9.4a5.4 5.4 0 015.58-5.73 4.76 4.76 0 015.04 3.9H8.46A3.02 3.02 0 005.5 5.42c-2.06 0-3.27 1.7-3.27 4 0 2.44 1.19 4 3.27 4A2.95 2.95 0 008.4 11.4zM13.66 9.99a3.35 3.35 0 003.43 3.44 2.95 2.95 0 002.8-1.65h2.1a4.88 4.88 0 01-4.98 3.4c-3.38 0-5.48-2.27-5.48-5.69s2.2-5.84 5.48-5.84c3.56 0 5.2 2.71 5.2 5.65v.7zm6.37-1.67a2.98 2.98 0 00-3.06-2.96 3.15 3.15 0 00-3.23 2.96zM25.9 5.44a3.81 3.81 0 013.48-1.8c2.52 0 3.83 1.7 3.83 4.53v6.74h-2.13V8.97c0-2.17-.7-3.53-2.43-3.53-1.75 0-2.71 1.42-2.71 3.15v6.32h-2.1V4.8c0-.27 0-.57-.02-.84h2.08zM38.12 3.96h2.04V5.6h-2.04v6.56c0 1.07.52 1.36 1.33 1.36a4.55 4.55 0 00.52-.04v1.56a3.83 3.83 0 01-.81.08c-1.94 0-3.17-.64-3.17-2.83v-6.7h-1.64V3.97h1.64V1h2.13zM43.57 3.96v1.4a2.67 2.67 0 012.65-1.67 3.12 3.12 0 01.54.05v1.91a2.7 2.7 0 00-.73-.06c-1.98 0-2.35 1.46-2.35 3.65v5.67h-2.1V4.94c0-.3 0-.64-.02-.97zM55.15 13.34a3.84 3.84 0 01-3.48 1.84c-2.56 0-3.79-1.55-3.79-4.4V3.96h2.1v6.02c0 2.17.69 3.44 2.42 3.44 2.25 0 2.64-2.04 2.64-4.44V3.96h2.1v10.13c0 .27 0 .54.02.81h-2.02zM61.62 5.44a3.7 3.7 0 013.44-1.8 3.26 3.26 0 013.29 2.03 4.22 4.22 0 013.77-2.02c2.6 0 3.83 1.7 3.83 4.52v6.74h-2.13V9c0-2.23-.64-3.57-2.37-3.57-1.7 0-2.64 1.44-2.64 3.17v6.3h-2.13v-5.9c0-2.23-.62-3.56-2.37-3.56-1.7 0-2.65 1.43-2.65 3.19v6.27h-2.1V4.82c0-.27 0-.56-.02-.85h2.09zM84.3 9.99a3.35 3.35 0 003.43 3.44 2.95 2.95 0 002.79-1.65h2.1a4.88 4.88 0 01-4.98 3.4c-3.37 0-5.47-2.27-5.47-5.69s2.2-5.84 5.47-5.84c3.57 0 5.2 2.71 5.2 5.65v.7zm6.37-1.67a2.98 2.98 0 00-3.06-2.96 3.15 3.15 0 00-3.23 2.96zM102.93 3.96c-1.02 1.52-2.67 3.71-3.73 5.21 1.13 1.63 2.9 4.17 4.02 5.74h-2.5c-.94-1.38-1.73-2.57-2.73-4.17-.83 1.27-2.12 3.16-2.79 4.17h-2.33l1.7-2.4 2.26-3.15-3.75-5.4h2.5l.44.69c.56.87 1.43 2.23 2.06 3.1l2.5-3.8zM106.32 5.38a4.33 4.33 0 013.58-1.75c3.1 0 5.12 2.46 5.12 5.77 0 3.42-2.06 5.76-5.06 5.76a4 4 0 01-3.6-1.63c0 .06.05 1.25.05 2.57v2.56h-2.1V3.96h2.02zm-.04 4.04c0 2.4 1.19 4 3.25 4 2.08 0 3.24-1.56 3.24-4 0-2.33-1.18-4.02-3.24-4.02-2.03 0-3.25 1.69-3.25 4.02zM118.19 9.99a3.35 3.35 0 003.43 3.44 2.95 2.95 0 002.8-1.65h2.1a4.88 4.88 0 01-4.98 3.4c-3.37 0-5.48-2.27-5.48-5.69s2.2-5.84 5.48-5.84c3.56 0 5.2 2.71 5.2 5.65v.7zm6.37-1.67a2.98 2.98 0 00-3.06-2.96 3.15 3.15 0 00-3.23 2.96zM130.37 3.96v1.4A2.67 2.67 0 01133 3.7a3.12 3.12 0 01.54.05v1.91a2.7 2.7 0 00-.73-.06c-1.98 0-2.35 1.46-2.35 3.65v5.67h-2.1V4.94c0-.3 0-.64-.02-.97zM134.76 0h2.19v2.38h-2.2zm2.14 3.96v10.95h-2.1V3.96zM141.38 5.44a3.7 3.7 0 013.44-1.8 3.26 3.26 0 013.28 2.03 4.22 4.22 0 013.77-2.02c2.6 0 3.83 1.7 3.83 4.52v6.74h-2.12V9c0-2.23-.65-3.57-2.37-3.57-1.71 0-2.65 1.44-2.65 3.17v6.3h-2.12v-5.9c0-2.23-.63-3.56-2.37-3.56-1.71 0-2.65 1.43-2.65 3.19v6.27h-2.1V4.82c0-.27 0-.56-.02-.85h2.08zM159.43 9.99a3.35 3.35 0 003.43 3.44 2.95 2.95 0 002.8-1.65h2.1a4.88 4.88 0 01-4.98 3.4c-3.38 0-5.48-2.27-5.48-5.69s2.2-5.84 5.48-5.84c3.56 0 5.2 2.71 5.2 5.65v.7zm6.37-1.67a2.98 2.98 0 00-3.06-2.96 3.15 3.15 0 00-3.23 2.96zM171.67 5.44a3.81 3.81 0 013.48-1.8c2.52 0 3.83 1.7 3.83 4.53v6.74h-2.13V8.97c0-2.17-.7-3.53-2.43-3.53-1.75 0-2.7 1.42-2.7 3.15v6.32h-2.1V4.8c0-.27 0-.57-.03-.84h2.08zM183.89 3.96h2.04V5.6h-2.04v6.56c0 1.07.52 1.36 1.33 1.36a4.57 4.57 0 00.52-.04v1.56a3.84 3.84 0 01-.8.08c-1.94 0-3.17-.64-3.17-2.83v-6.7h-1.65V3.97h1.65V1h2.12zM194.32 14.9a10.79 10.79 0 01-.1-1.5 4.02 4.02 0 01-3.68 1.72c-2.3 0-3.96-1.13-3.96-3.17 0-2.34 2.25-3.13 5.16-3.53.73-.1 1.52-.18 2.25-.25 0-2.2-.91-2.83-2.35-2.83-1.58 0-2.33.73-2.48 2.04h-2.06c.1-2.33 1.98-3.7 4.58-3.7 2.33 0 4.35.76 4.35 5.04v2.12a22.8 22.8 0 00.27 4.07zm-5.47-2.97c0 1.02.83 1.66 2.16 1.66 1.98 0 3-1.16 3-3.31v-.33a.88.88 0 01.02-.25c-3.56.33-5.18.73-5.18 2.23zm3.33-9.45h-2.21L192.34 0h2.77zM198.4 0h2.1v14.9h-2.1zM205.06 5.44a3.81 3.81 0 013.47-1.8c2.52 0 3.84 1.7 3.84 4.53v6.74h-2.13V8.97c0-2.17-.7-3.53-2.43-3.53-1.75 0-2.71 1.42-2.71 3.15v6.32H203V4.8c0-.27 0-.57-.02-.84h2.08zM216.6 2.48h-2.21L216.76 0h2.77zm.18 1.48v10.95h-2.12V3.96z"/>
  <path d="M221.45 0v3.96l-.02 1.44a3.8 3.8 0 013.45-1.75c2.5 0 3.83 1.69 3.83 4.46v6.8h-2.12V8.99c0-2.17-.7-3.54-2.44-3.54a2.82 2.82 0 00-2.7 3.08v6.38h-2.1V.01zM241.37 9.47c0 3.33-2.06 5.7-5.56 5.7s-5.5-2.37-5.5-5.7c0-3.4 2.13-5.8 5.54-5.8 3.4 0 5.52 2.4 5.52 5.8zm-8.83-.03c0 2.44 1.17 3.99 3.25 3.99s3.27-1.55 3.27-3.99c0-2.33-1.2-4.02-3.27-4.02s-3.25 1.69-3.25 4.02zM255.82 14.9v-1.53a4.17 4.17 0 01-3.7 1.79c-3 0-5.09-2.34-5.09-5.76 0-3.31 2-5.77 5.15-5.77a4.18 4.18 0 013.51 1.75c-.02-.4-.02-.75-.02-1.08V0h2.1v14.9zm-6.52-5.48c0 2.44 1.17 4 3.23 4 2.08 0 3.25-1.58 3.25-4 0-2.33-1.2-4.02-3.23-4.02-2.06 0-3.25 1.69-3.25 4.02zM260.15 0h2.18v2.38h-2.18zm2.14 3.96v10.95h-2.1V3.96zM267.58 14.9L263.5 3.97h2.4l1.7 4.98 1.21 3.7h.04c.5-1.53.85-2.32 1.35-3.93l1.6-4.75h2.27l-4.2 10.95zM281.84 14.9a10.95 10.95 0 01-.1-1.5 4.02 4.02 0 01-3.68 1.72c-2.3 0-3.96-1.13-3.96-3.17 0-2.34 2.25-3.13 5.16-3.53.73-.1 1.52-.18 2.25-.25 0-2.2-.91-2.83-2.35-2.83-1.58 0-2.33.73-2.48 2.04h-2.06c.1-2.33 1.98-3.7 4.58-3.7 2.33 0 4.35.76 4.35 5.04v2.12a22.76 22.76 0 00.28 4.07zm-5.47-2.97c0 1.02.83 1.67 2.16 1.67 1.98 0 3-1.17 3-3.32v-.33a.88.88 0 01.02-.25c-3.56.33-5.18.72-5.18 2.23zM293.94 14.9v-1.53a4.17 4.17 0 01-3.7 1.79c-3 0-5.09-2.34-5.09-5.76 0-3.31 2-5.77 5.14-5.77a4.18 4.18 0 013.52 1.75c-.02-.4-.02-.75-.02-1.08V0h2.1v14.9zm-6.52-5.48c0 2.44 1.17 4 3.23 4 2.08 0 3.25-1.58 3.25-4 0-2.33-1.21-4.02-3.23-4.02-2.06 0-3.25 1.69-3.25 4.02zM298.4 0h2.1v14.9h-2.1zM309.97 14.9a10.88 10.88 0 01-.1-1.5 4.02 4.02 0 01-3.69 1.72c-2.29 0-3.95-1.13-3.95-3.17 0-2.34 2.25-3.13 5.16-3.53.73-.1 1.52-.18 2.25-.25 0-2.2-.92-2.83-2.35-2.83-1.59 0-2.34.73-2.48 2.04h-2.06c.1-2.33 1.98-3.7 4.58-3.7 2.33 0 4.35.76 4.35 5.04v2.12a22.81 22.81 0 00.27 4.07zm-5.48-2.97c0 1.02.83 1.67 2.17 1.67 1.97 0 3-1.17 3-3.32v-.33a.89.89 0 01.02-.25c-3.56.33-5.19.72-5.19 2.23z"/>
</svg>
