<svg xmlns="http://www.w3.org/2000/svg" viewBox="0 0 172.8 33.56">
  <path d="M30.89 22.55c-1.64 6.31-6.61 11-14.69 11C6.19 33.53 0 26.37 0 16.72S6.37 0 16.27 0C24.52 0 29.5 4.64 31 11.38h-6.36A8.8 8.8 0 0016 5.13c-6 0-9.53 4.92-9.53 11.65 0 7.1 3.46 11.66 9.53 11.66a8.63 8.63 0 008.5-5.89z"/>
  <path d="M79.2 18.45c.18 5.58 3.94 10 10 10 4.37 0 6.49-2.07 8.13-4.8h6.13c-1.76 5.77-6.92 9.89-14.5 9.89C79.13 33.56 73 27 73 17S79.43 0 89 0c10.38 0 15.18 7.89 15.18 16.45v2zm18.57-4.86C97.22 8.49 94.13 5 88.85 5c-5 0-8.74 3.27-9.41 8.61z"/>
  <path d="M146 .79h7c4.56 0 9.53.13 13.2 2.5 4.11 2.64 6.62 7.69 6.62 13.55a16 16 0 01-5.6 12.62c-3.76 3-8 3.31-13.91 3.31H146zm5.68 27.06h3.13c7.65 0 12.13-2.77 12.13-11 0-7.29-4.34-11-11.55-11h-3.71z"/>
</svg>
