{
  "contact": {
    "name": "Centrum experimentálního divadla p. o.",
    "ic": "004 009 21",
    "dic": "CZ00400921",
    "orks": "OR KS v Brně, oddíl Pro., vložka 29",
    "telephone": "+420 542 123 451",
    "email": "ced@ced-brno.cz",
    "address": {
      "street": "Zelný trh 9",
      "psc": "602 00",
      "city": "Brno"
    }
  },
  "venues": [
    {
      "name": "Husa na provázku",
      "url": "https://www.provazek.cz/"
    },
    {
      "name": "Terén",
      "url": "https://jasuteren.cz/"
    },
    {
      "name": "HaDivadlo",
      "url": "https://www.hadivadlo.cz/"
    }
  ],
  "menu": [
    {
      "title": "O nás",
      "menu": [
        "Vize",
        "Prostory",
        "Knihovna / archiv",
        "Dokumenty"
      ]
    },
    {
      "title": "Program"
    },
    {
      "title": "Časopis CEDIT"
    },
    {
      "title": "Projekty"
    },
    {
      "title": "Vzdělání"
    },
    {
      "title": "Kontakty"
    }
  ]
}
